author	link	file path
Mliu92	https://commons.wikimedia.org/wiki/File:Bear_game_01.svg	
Mliu92	https://commons.wikimedia.org/wiki/File:Bear_game_03.svg	
Mliu92	https://commons.wikimedia.org/wiki/File:Bear_game_04.svg	
Mliu92	https://commons.wikimedia.org/wiki/File:Bear_game_05.svg	
Mliu92	https://commons.wikimedia.org/wiki/File:Bear_game_06.svg	
Mliu92	https://commons.wikimedia.org/wiki/File:Bear_game_07.svg	
Mliu92	https://commons.wikimedia.org/wiki/File:Bear_game_08.svg	
Mliu92	https://commons.wikimedia.org/wiki/File:Watermelon_Chess_(blank).svg	
