author	link	file path
Gunter Gerhardt, Iemcd	https://commons.wikimedia.org/wiki/File:Playing_card-german-blatt-01_daus.svg	
Gunter Gerhardt, Iemcd	https://commons.wikimedia.org/wiki/File:Playing_card-german-blatt-06.svg	
Gunter Gerhardt, Iemcd	https://commons.wikimedia.org/wiki/File:Playing_card-german-blatt-07.svg	
Gunter Gerhardt, Iemcd	https://commons.wikimedia.org/wiki/File:Playing_card-german-blatt-08.svg	
Gunter Gerhardt, Iemcd	https://commons.wikimedia.org/wiki/File:Playing_card-german-blatt-09.svg	
Gunter Gerhardt, Iemcd	https://commons.wikimedia.org/wiki/File:Playing_card-german-blatt-10.svg	
Gunter Gerhardt, Iemcd	https://commons.wikimedia.org/wiki/File:Playing_card-german-blatt-11_jack.svg	
Gunter Gerhardt, Iemcd	https://commons.wikimedia.org/wiki/File:Playing_card-german-blatt-12_queen.svg	
Gunter Gerhardt, Iemcd	https://commons.wikimedia.org/wiki/File:Playing_card-german-blatt-13_king.svg	
Gunter Gerhardt, Iemcd	https://commons.wikimedia.org/wiki/File:Playing_card-german-eichel-01_daus.svg	
Gunter Gerhardt, Iemcd	https://commons.wikimedia.org/wiki/File:Playing_card-german-eichel-06.svg	
Gunter Gerhardt, Iemcd	https://commons.wikimedia.org/wiki/File:Playing_card-german-eichel-07.svg	
Gunter Gerhardt, Iemcd	https://commons.wikimedia.org/wiki/File:Playing_card-german-eichel-08.svg	
Gunter Gerhardt, Iemcd	https://commons.wikimedia.org/wiki/File:Playing_card-german-eichel-09.svg	
Gunter Gerhardt, Iemcd	https://commons.wikimedia.org/wiki/File:Playing_card-german-eichel-10.svg	
Gunter Gerhardt, Iemcd	https://commons.wikimedia.org/wiki/File:Playing_card-german-eichel-11_unter.svg	
Gunter Gerhardt, Iemcd	https://commons.wikimedia.org/wiki/File:Playing_card-german-eichel-12_ober.svg	
Gunter Gerhardt, Iemcd	https://commons.wikimedia.org/wiki/File:Playing_card-german-eichel-13_konig.svg	
Gunter Gerhardt, Iemcd	https://commons.wikimedia.org/wiki/File:Playing_card-german-hart-01_daus.svg	
Gunter Gerhardt, Iemcd	https://commons.wikimedia.org/wiki/File:Playing_card-german-hart-06.svg	
Gunter Gerhardt, Iemcd	https://commons.wikimedia.org/wiki/File:Playing_card-german-hart-07.svg	
Gunter Gerhardt, Iemcd	https://commons.wikimedia.org/wiki/File:Playing_card-german-hart-08.svg	
Gunter Gerhardt, Iemcd	https://commons.wikimedia.org/wiki/File:Playing_card-german-hart-09.svg	
Gunter Gerhardt, Iemcd	https://commons.wikimedia.org/wiki/File:Playing_card-german-hart-10.svg	
Gunter Gerhardt, Iemcd	https://commons.wikimedia.org/wiki/File:Playing_card-german-hart-11_unter.svg	
Gunter Gerhardt, Iemcd	https://commons.wikimedia.org/wiki/File:Playing_card-german-hart-12_ober.svg	
Gunter Gerhardt, Iemcd	https://commons.wikimedia.org/wiki/File:Playing_card-german-hart-13_konig.svg	
Gunter Gerhardt, Iemcd	https://commons.wikimedia.org/wiki/File:Playing_card-german-schellen-01.svg	
Gunter Gerhardt, Iemcd	https://commons.wikimedia.org/wiki/File:Playing_card-german-schellen-06.svg	
Gunter Gerhardt, Iemcd	https://commons.wikimedia.org/wiki/File:Playing_card-german-schellen-07.svg	
Gunter Gerhardt, Iemcd	https://commons.wikimedia.org/wiki/File:Playing_card-german-schellen-08.svg	
Gunter Gerhardt, Iemcd	https://commons.wikimedia.org/wiki/File:Playing_card-german-schellen-09.svg	
Gunter Gerhardt, Iemcd	https://commons.wikimedia.org/wiki/File:Playing_card-german-schellen-10.svg	
Gunter Gerhardt, Iemcd	https://commons.wikimedia.org/wiki/File:Playing_card-german-schellen-11_jack.svg	
Gunter Gerhardt, Iemcd	https://commons.wikimedia.org/wiki/File:Playing_card-german-schellen-12_queen.svg	
Gunter Gerhardt, Iemcd	https://commons.wikimedia.org/wiki/File:Playing_card-german-schellen-13_king.svg	
Luciano Montanaro, Vincent Bermel	https://gitlab.gnome.org/GNOME/aisleriot	cards/XSkat.svg
