author	link	file path
ImKadaga	https://github.com/ImKadaga/shogi-pieces	boards/board_doubutsu.svg
ImKadaga	https://github.com/ImKadaga/shogi-pieces	boards/board_doubutsu_v2.svg
ImKadaga	https://github.com/ImKadaga/shogi-pieces	doubutsu/0KY.svg
ImKadaga	https://github.com/ImKadaga/shogi-pieces	doubutsu/0NY.svg
ImKadaga	https://github.com/ImKadaga/shogi-pieces	doubutsu/0GI.svg
ImKadaga	https://github.com/ImKadaga/shogi-pieces	doubutsu/0NG.svg
ImKadaga	https://github.com/ImKadaga/shogi-pieces	doubutsu/0FU.svg
ImKadaga	https://github.com/ImKadaga/shogi-pieces	doubutsu/0TO.svg
ImKadaga	https://github.com/ImKadaga/shogi-pieces	doubutsu/0KI.svg
ImKadaga	https://github.com/ImKadaga/shogi-pieces	doubutsu/0KA.svg
ImKadaga	https://github.com/ImKadaga/shogi-pieces	doubutsu/0UM.svg
ImKadaga	https://github.com/ImKadaga/shogi-pieces	doubutsu/0HI.svg
ImKadaga	https://github.com/ImKadaga/shogi-pieces	doubutsu/0RY.svg
ImKadaga	https://github.com/ImKadaga/shogi-pieces	doubutsu/0KE.svg
ImKadaga	https://github.com/ImKadaga/shogi-pieces	doubutsu/0NK.svg
ImKadaga	https://github.com/ImKadaga/shogi-pieces	doubutsu/0GY.svg
