author	link	file path
Mliu92	https://commons.wikimedia.org/wiki/File:Coppit_board-06.svg	
Mliu92	https://commons.wikimedia.org/wiki/File:Fang_den_Hut_board-04.svg	
Mliu92	https://commons.wikimedia.org/wiki/File:Fang_den_Hut_board-06.svg	
