author	link	file path
NNB	https://codeberg.org/NNB/fate-roulette	cards/health.svg
NNB	https://codeberg.org/NNB/fate-roulette	cards/life.svg
NNB	https://codeberg.org/NNB/fate-roulette	cards/death.svg
NNB	https://codeberg.org/NNB/fate-roulette	cards/peek.svg
NNB	https://codeberg.org/NNB/fate-roulette	cards/power.svg
NNB	https://codeberg.org/NNB/fate-roulette	cards/disable.svg
NNB	https://codeberg.org/NNB/fate-roulette	cards/health_back.svg
NNB	https://codeberg.org/NNB/fate-roulette	cards/fate_back.svg
NNB	https://codeberg.org/NNB/fate-roulette	cards/ability_back.svg
