author	link	file path
Chordboard	https://commons.wikimedia.org/wiki/File:Goosy_Goosy_Gander_02.JPG	
Copyfraud	https://commons.wikimedia.org/wiki/File:Das_G%C3%A4nse-Spiel_(Game_of_the_goose)_(BM_1893,0331.83).jpg	
Daan Hoeksema, Tekstman	https://commons.wikimedia.org/wiki/File:Ganzenbordspel.jpg	
Daan Hoeksema, Tekstman	https://commons.wikimedia.org/wiki/File:Veluwe-spel.jpg	
Fæ	https://commons.wikimedia.org/wiki/File:De_toovenaar,_nieuw_vermakelijk_kinderspel_LCCN2003688568.jpg	
G. de Ribaucourt, François GOGLINS	https://commons.wikimedia.org/wiki/File:Verne-Hetzel-Testament_exentrique-161.jpg	
Gepardenforellenfischer	https://commons.wikimedia.org/wiki/File:El_juego_de_la_Oca_-_Juan_Francisco_Piferrer_-_Barcelona.jpg	
Gepardenforellenfischer	https://commons.wikimedia.org/wiki/File:Jeu_de_Marine.jpg	
Gepardenforellenfischer	https://commons.wikimedia.org/wiki/File:Joc_de_la_Oca_-_Gabriel_Guasp_-_Palma_de_Mallorca.jpg	
ItsLassieTime	https://commons.wikimedia.org/wiki/File:Game_of_the_Telegraph_Boy_c1888.JPG	
j4p4n	https://openclipart.org/detail/297355/game-of-the-goose	
Johann Georg Walte, Gepardenforellenfischer	https://commons.wikimedia.org/wiki/File:Das_B%C3%BCrgerpark-W%C3%BCrfelspiel_-_Johann_Georg_Walte_-_1884.jpg	
Johann Nepomuk Tinkhauser, Historiograf	https://commons.wikimedia.org/wiki/File:Tinkhauser_hahnenspiel.jpg	
Lionel Allorge	https://commons.wikimedia.org/wiki/File:Collections_du_Mus%C3%A9e_du_Barreau_de_Paris_le_22_janvier_2015_-_26.jpg	
MartinPoulter	https://commons.wikimedia.org/wiki/File:Bodleian_Libraries,_Jeu_de_l%27amour_et_de_l%27himen%C3%A9e.jpg	
Mr.Nostalgic	https://commons.wikimedia.org/wiki/File:Ganzenbord_met_spelregels_Het_nieuw_en_vermaeckelyck_ghanse-spel_(titel_op_object),_RP-P-1893-A-18144.jpg	
Mr.Nostalgic	https://commons.wikimedia.org/wiki/File:Ganzenbord,_ca._1830_Bericht_des_Neuen_Ganse-Spiels_(titel_op_object),_RP-P-1898-A-20029-1.jpg	
Mr.Nostalgic	https://commons.wikimedia.org/wiki/File:Ganzenbord,_RP-P-1906-150.jpg	
Mr.Nostalgic	https://commons.wikimedia.org/wiki/File:Ganzenbord,_RP-P-1906-150.jpg	
Mr.Nostalgic	https://commons.wikimedia.org/wiki/File:Vaderlands_Historiespel,_1816_Vaderlandsch_Historiespel_(titel_op_object),_RP-P-1908-2540.jpg	
Mr.Nostalgic	https://commons.wikimedia.org/wiki/File:Nieuw_ganzen-spel_(titel_op_object),_RP-P-OB-200.303.jpg	
Mr.Nostalgic	https://commons.wikimedia.org/wiki/File:Nieuw_vermakelijk_ganzenspel_(titel_op_object),_RP-P-OB-200.882.jpg	
Mr.Nostalgic	https://commons.wikimedia.org/wiki/File:Nieuw_vroolijk_ganzenspel_(titel_op_object),_RP-P-OB-201.495.jpg	
Mr.Nostalgic	https://commons.wikimedia.org/wiki/File:Het_nieuw_vermakelijk_Kinder-Ganzenspel,_voor_de_Nederlandsche_jeugd_(titel_op_object),_RP-P-OB-201.496.jpg	
Mr.Nostalgic	https://commons.wikimedia.org/wiki/File:Ganzenbordspel,_RP-P-OB-201.499.jpg	
Mr.Nostalgic	https://commons.wikimedia.org/wiki/File:Het_nieuw_vermakelyk_ganzenspel_Nouveau_jeu_de_l%27oie_(titel_op_object),_RP-P-OB-201.501.jpg	
Mr.Nostalgic	https://commons.wikimedia.org/wiki/File:Nieuw_en_vermakelijk_ganzenspel_(titel_op_object),_RP-P-OB-201.567.jpg	
Mr.Nostalgic	https://commons.wikimedia.org/wiki/File:Het_zwemmende_ganzenspel_(titel_op_object),_RP-P-OB-201.575.jpg	
Mr.Nostalgic	https://commons.wikimedia.org/wiki/File:Ganzenspel_(titel_op_object),_RP-P-OB-201.576.jpg	
Mr.Nostalgic	https://commons.wikimedia.org/wiki/File:Het_nieuw_en_vermaakelyke_gansen_spel_(titel_op_object),_RP-P-OB-201.582.jpg	
Mr.Nostalgic	https://commons.wikimedia.org/wiki/File:Grand_jeu_de_l%27oie_Ganzenbord_(titel_op_object),_RP-P-OB-201.586.jpg	
Mr.Nostalgic	https://commons.wikimedia.org/wiki/File:Ganzenspel,_RP-P-OB-201.590.jpg	
Mr.Nostalgic	https://commons.wikimedia.org/wiki/File:Het_nieuw_vermakelijk_ganzenspel_Le_nouveau_jeu_d%27Oie_(titel_op_object),_RP-P-OB-201.600.jpg	
Mr.Nostalgic	https://commons.wikimedia.org/wiki/File:Spel_van_Waterloo,_1815_Historiesch_Spel_van_Waterloo_(titel_op_object),_RP-P-OB-76.783.jpg	
Mr.Nostalgic	https://commons.wikimedia.org/wiki/File:Het_nieuw_en_vermakelyk_ganzen-spel,_op_welke_wyze_en_hoe_men_het_zelve_spelen_moet_(titel_op_object),_RP-P-OB-77.374.jpg	
Mr.Nostalgic	https://commons.wikimedia.org/wiki/File:Ganzenbordspel,_ca._1830-1850_Het_Nieuwen_Vermaecklyck_Gansespel_(titel_op_object),_RP-P-OB-88.070.jpg	
Mr.Nostalgic	https://commons.wikimedia.org/wiki/File:Ganzenbordspel,_ca._1815-1850_Nederlandsch_Ganze_Spel_(titel_op_object),_RP-P-OB-88.071.jpg	
Mr.Nostalgic	https://commons.wikimedia.org/wiki/File:Ganzenbordspel,_ca._1840-1850_Het_Nieuw_Vermakelijk_Ganzenspel_(titel_op_object),_RP-P-OB-88.072.jpg	
Mr.Nostalgic	https://commons.wikimedia.org/wiki/File:Hanenspel,_ca._1800-1850_Het_Nieuw_Vermakelijk_Hanespel_(titel_op_object),_RP-P-OB-88.083.jpg	
Mr.Nostalgic	https://commons.wikimedia.org/wiki/File:Bordspel_naar_aanleiding_van_de_Amsterdamse_Wereldtentoonstelling_van_1883_(titel_op_object)_Tentoonstellings_spel_(titel_op_object),_RP-P-OB-89.585.jpg	
Mr.Nostalgic	https://commons.wikimedia.org/wiki/File:Nieuw_vermakelijk_ganzenspel-Catchpenny_print-SMC_K_0160.jpeg	
Mu	https://commons.wikimedia.org/wiki/File:Round_the_world_with_Nellie_Bly_1890.jpg	
OlafJanssen	https://commons.wikimedia.org/wiki/File:Het_nieuwe_apenspel-Catchpenny_print-PRENT_0079.jpeg	
OlafJanssen	https://commons.wikimedia.org/wiki/File:Fransche_koningen_spel-Catchpenny_print-SMC_K_0159.jpeg	
Pharos	https://commons.wikimedia.org/wiki/File:The_Pleasant_Game_of_the_Goose_(Il_Dilettevole_Gioco_di_Loca)_MET_DP858638.jpg	
Pharos	https://commons.wikimedia.org/wiki/File:Game_of_the_Goose_MET_DP867954.jpg	
Pmathijssen	https://commons.wikimedia.org/wiki/File:Ganzenbord_pd.svg	
Scribedia	https://commons.wikimedia.org/wiki/File:Jeucasserole1905.jpg	
Sebdelprat	https://commons.wikimedia.org/wiki/File:Jeu_de_la_R%C3%A9volution_fran%C3%A7aise_trac%C3%A9_sur_le_plan_du_jeu_d%27oye_renouvel%C3%A9_des_Gr%C3%A8cs.jpg	
Vert	https://commons.wikimedia.org/wiki/File:Paris_Le_divertissement_des_religieuses.jpg	
