author	link	file path
Outlookxp	https://commons.wikimedia.org/wiki/File:%E4%B8%AD%E5%9C%8B%E7%9A%84%E5%BD%A9%E5%8D%B0%E9%81%8A%E6%88%B2%E5%9C%96.jpg	
Outlookxp	https://commons.wikimedia.org/wiki/File:%E4%B8%AD%E5%9C%8B%E7%9A%84%E5%BD%A9%E5%8D%B0%E9%81%8A%E6%88%B2%E5%9C%963.jpg	
Outlookxp	https://commons.wikimedia.org/wiki/File:%E7%94%9F%E8%82%96%E5%8D%87%E4%BB%99%E5%9C%96.jpg	
Outlookxp	https://commons.wikimedia.org/wiki/File:%E7%94%9F%E8%82%96%E5%8D%87%E4%BB%99%E5%9C%962.jpg	
Outlookxp	https://commons.wikimedia.org/wiki/File:%E4%B8%AD%E5%9C%8B%E7%9A%84%E6%89%8B%E7%B9%AA%E9%81%8A%E6%88%B2%E5%9C%96.png	
Outlookxp	https://commons.wikimedia.org/wiki/File:%E5%AE%89%E5%B9%B3%E7%9A%84%E8%91%AB%E8%98%86%E5%95%8F.png	
Outlookxp	https://commons.wikimedia.org/wiki/File:%E9%B9%BF%E6%B8%AF%E7%9A%84%E8%91%AB%E8%98%86%E5%95%8F.jpg	
Outlookxp	https://commons.wikimedia.org/wiki/File:%E9%B3%B3%E5%87%B0%E6%A3%8B.png	
Outlookxp	https://commons.wikimedia.org/wiki/File:%E5%B0%8F%E9%B3%B3%E5%87%B0%E6%A3%8B.jpg	
Outlookxp	https://commons.wikimedia.org/wiki/File:%E7%94%9F%E8%82%96%E6%A3%8B.jpg	
Outlookxp	https://commons.wikimedia.org/wiki/File:%E5%B0%8F%E5%8D%87%E5%AE%98%E5%9C%96.jpg	
Outlookxp	https://commons.wikimedia.org/wiki/File:%E6%B0%B4%E6%BB%B8%E9%81%B8%E4%BB%99%E5%9C%96.png	
