author	link	file path
Antonsusi	https://commons.wikimedia.org/wiki/File:Mensch_%C3%A4rgere_dich_nicht_4.svg	
FischX	https://commons.wikimedia.org/wiki/File:Menschenaergern.svg	
Mliu92	https://commons.wikimedia.org/wiki/File:Mensch_%C3%A4rgere_dich_nicht_(1929%2C_reverse).svg	
