author	link	file path
adamoell	https://commons.wikimedia.org/wiki/File:Sesotho_Morabaraba_board.svg	
adamoell	https://commons.wikimedia.org/wiki/File:Six_Men's_Morris.svg	
Elembis	https://commons.wikimedia.org/wiki/File:Nine_Men's_Morris_board_with_coordinates%2C_modified.svg	
Elembis	https://commons.wikimedia.org/wiki/File:Three_Men's_Morris_board.svg	
Elembis	https://commons.wikimedia.org/wiki/File:Three_Men's_Morris_variant_board.svg	
Elembis	https://commons.wikimedia.org/wiki/File:Twelve_Men's_Morris_board.svg	
