author	link	file path
Cookai1205	https://commons.wikimedia.org/wiki/File:Torifuda_001.svg	
Cookai1205	https://commons.wikimedia.org/wiki/File:Torifuda_002.svg	
Cookai1205	https://commons.wikimedia.org/wiki/File:Torifuda_003.svg	
Cookai1205	https://commons.wikimedia.org/wiki/File:Torifuda_004.svg	
Cookai1205	https://commons.wikimedia.org/wiki/File:Torifuda_005.svg	
Cookai1205	https://commons.wikimedia.org/wiki/File:Torifuda_006.svg	
Cookai1205	https://commons.wikimedia.org/wiki/File:Torifuda_007.svg	
Cookai1205	https://commons.wikimedia.org/wiki/File:Torifuda_008.svg	
Cookai1205	https://commons.wikimedia.org/wiki/File:Torifuda_009.svg	
Cookai1205	https://commons.wikimedia.org/wiki/File:Torifuda_010.svg	
Cookai1205	https://commons.wikimedia.org/wiki/File:Torifuda_011.svg	
Cookai1205	https://commons.wikimedia.org/wiki/File:Torifuda_012.svg	
Cookai1205	https://commons.wikimedia.org/wiki/File:Torifuda_013.svg	
Cookai1205	https://commons.wikimedia.org/wiki/File:Torifuda_014.svg	
Cookai1205	https://commons.wikimedia.org/wiki/File:Torifuda_015.svg	
Cookai1205	https://commons.wikimedia.org/wiki/File:Torifuda_016.svg	
Cookai1205	https://commons.wikimedia.org/wiki/File:Torifuda_017.svg	
Cookai1205	https://commons.wikimedia.org/wiki/File:Torifuda_018.svg	
Cookai1205	https://commons.wikimedia.org/wiki/File:Torifuda_019.svg	
Cookai1205	https://commons.wikimedia.org/wiki/File:Torifuda_020.svg	
Cookai1205	https://commons.wikimedia.org/wiki/File:Torifuda_021.svg	
Cookai1205	https://commons.wikimedia.org/wiki/File:Torifuda_022.svg	
Cookai1205	https://commons.wikimedia.org/wiki/File:Torifuda_023.svg	
Cookai1205	https://commons.wikimedia.org/wiki/File:Torifuda_024.svg	
Cookai1205	https://commons.wikimedia.org/wiki/File:Torifuda_025.svg	
Cookai1205	https://commons.wikimedia.org/wiki/File:Torifuda_026.svg	
Cookai1205	https://commons.wikimedia.org/wiki/File:Torifuda_027.svg	
Cookai1205	https://commons.wikimedia.org/wiki/File:Torifuda_028.svg	
Cookai1205	https://commons.wikimedia.org/wiki/File:Torifuda_029.svg	
Cookai1205	https://commons.wikimedia.org/wiki/File:Torifuda_030.svg	
Cookai1205	https://commons.wikimedia.org/wiki/File:Torifuda_031.svg	
Cookai1205	https://commons.wikimedia.org/wiki/File:Torifuda_032.svg	
Cookai1205	https://commons.wikimedia.org/wiki/File:Torifuda_033.svg	
Cookai1205	https://commons.wikimedia.org/wiki/File:Torifuda_034.svg	
Cookai1205	https://commons.wikimedia.org/wiki/File:Torifuda_035.svg	
Cookai1205	https://commons.wikimedia.org/wiki/File:Torifuda_036.svg	
Cookai1205	https://commons.wikimedia.org/wiki/File:Torifuda_037.svg	
Cookai1205	https://commons.wikimedia.org/wiki/File:Torifuda_038.svg	
Cookai1205	https://commons.wikimedia.org/wiki/File:Torifuda_039.svg	
Cookai1205	https://commons.wikimedia.org/wiki/File:Torifuda_040.svg	
Cookai1205	https://commons.wikimedia.org/wiki/File:Torifuda_041.svg	
Cookai1205	https://commons.wikimedia.org/wiki/File:Torifuda_042.svg	
Cookai1205	https://commons.wikimedia.org/wiki/File:Torifuda_043.svg	
Cookai1205	https://commons.wikimedia.org/wiki/File:Torifuda_044.svg	
Cookai1205	https://commons.wikimedia.org/wiki/File:Torifuda_045.svg	
Cookai1205	https://commons.wikimedia.org/wiki/File:Torifuda_046.svg	
Cookai1205	https://commons.wikimedia.org/wiki/File:Torifuda_047.svg	
Cookai1205	https://commons.wikimedia.org/wiki/File:Torifuda_048.svg	
Cookai1205	https://commons.wikimedia.org/wiki/File:Torifuda_049.svg	
Cookai1205	https://commons.wikimedia.org/wiki/File:Torifuda_050.svg	
Cookai1205	https://commons.wikimedia.org/wiki/File:Torifuda_051.svg	
Cookai1205	https://commons.wikimedia.org/wiki/File:Torifuda_052.svg	
Cookai1205	https://commons.wikimedia.org/wiki/File:Torifuda_053.svg	
Cookai1205	https://commons.wikimedia.org/wiki/File:Torifuda_054.svg	
Cookai1205	https://commons.wikimedia.org/wiki/File:Torifuda_055.svg	
Cookai1205	https://commons.wikimedia.org/wiki/File:Torifuda_056.svg	
Cookai1205	https://commons.wikimedia.org/wiki/File:Torifuda_057.svg	
Cookai1205	https://commons.wikimedia.org/wiki/File:Torifuda_058.svg	
Cookai1205	https://commons.wikimedia.org/wiki/File:Torifuda_059.svg	
Cookai1205	https://commons.wikimedia.org/wiki/File:Torifuda_060.svg	
Cookai1205	https://commons.wikimedia.org/wiki/File:Torifuda_061.svg	
Cookai1205	https://commons.wikimedia.org/wiki/File:Torifuda_062.svg	
Cookai1205	https://commons.wikimedia.org/wiki/File:Torifuda_063.svg	
Cookai1205	https://commons.wikimedia.org/wiki/File:Torifuda_064.svg	
Cookai1205	https://commons.wikimedia.org/wiki/File:Torifuda_065.svg	
Cookai1205	https://commons.wikimedia.org/wiki/File:Torifuda_066.svg	
Cookai1205	https://commons.wikimedia.org/wiki/File:Torifuda_067.svg	
Cookai1205	https://commons.wikimedia.org/wiki/File:Torifuda_068.svg	
Cookai1205	https://commons.wikimedia.org/wiki/File:Torifuda_069.svg	
Cookai1205	https://commons.wikimedia.org/wiki/File:Torifuda_070.svg	
Cookai1205	https://commons.wikimedia.org/wiki/File:Torifuda_071.svg	
Cookai1205	https://commons.wikimedia.org/wiki/File:Torifuda_072.svg	
Cookai1205	https://commons.wikimedia.org/wiki/File:Torifuda_073.svg	
Cookai1205	https://commons.wikimedia.org/wiki/File:Torifuda_074.svg	
Cookai1205	https://commons.wikimedia.org/wiki/File:Torifuda_075.svg	
Cookai1205	https://commons.wikimedia.org/wiki/File:Torifuda_076.svg	
Cookai1205	https://commons.wikimedia.org/wiki/File:Torifuda_077.svg	
Cookai1205	https://commons.wikimedia.org/wiki/File:Torifuda_078.svg	
Cookai1205	https://commons.wikimedia.org/wiki/File:Torifuda_079.svg	
Cookai1205	https://commons.wikimedia.org/wiki/File:Torifuda_080.svg	
Cookai1205	https://commons.wikimedia.org/wiki/File:Torifuda_081.svg	
Cookai1205	https://commons.wikimedia.org/wiki/File:Torifuda_082.svg	
Cookai1205	https://commons.wikimedia.org/wiki/File:Torifuda_083.svg	
Cookai1205	https://commons.wikimedia.org/wiki/File:Torifuda_084.svg	
Cookai1205	https://commons.wikimedia.org/wiki/File:Torifuda_085.svg	
Cookai1205	https://commons.wikimedia.org/wiki/File:Torifuda_086.svg	
Cookai1205	https://commons.wikimedia.org/wiki/File:Torifuda_087.svg	
Cookai1205	https://commons.wikimedia.org/wiki/File:Torifuda_088.svg	
Cookai1205	https://commons.wikimedia.org/wiki/File:Torifuda_089.svg	
Cookai1205	https://commons.wikimedia.org/wiki/File:Torifuda_090.svg	
Cookai1205	https://commons.wikimedia.org/wiki/File:Torifuda_091.svg	
Cookai1205	https://commons.wikimedia.org/wiki/File:Torifuda_092.svg	
Cookai1205	https://commons.wikimedia.org/wiki/File:Torifuda_093.svg	
Cookai1205	https://commons.wikimedia.org/wiki/File:Torifuda_094.svg	
Cookai1205	https://commons.wikimedia.org/wiki/File:Torifuda_095.svg	
Cookai1205	https://commons.wikimedia.org/wiki/File:Torifuda_096.svg	
Cookai1205	https://commons.wikimedia.org/wiki/File:Torifuda_097.svg	
Cookai1205	https://commons.wikimedia.org/wiki/File:Torifuda_098.svg	
Cookai1205	https://commons.wikimedia.org/wiki/File:Torifuda_099.svg	
Cookai1205	https://commons.wikimedia.org/wiki/File:Torifuda_100.svg	
Ultratomio	https://commons.wikimedia.org/wiki/File:Hyakuninisshu_001.jpg	
Ultratomio	https://commons.wikimedia.org/wiki/File:Hyakuninisshu_002.jpg	
Ultratomio	https://commons.wikimedia.org/wiki/File:Hyakuninisshu_003.jpg	
Ultratomio	https://commons.wikimedia.org/wiki/File:Hyakuninisshu_004.jpg	
Ultratomio	https://commons.wikimedia.org/wiki/File:Hyakuninisshu_005.jpg	
Ultratomio	https://commons.wikimedia.org/wiki/File:Hyakuninisshu_006.jpg	
Ultratomio	https://commons.wikimedia.org/wiki/File:Hyakuninisshu_007.jpg	
Ultratomio	https://commons.wikimedia.org/wiki/File:Hyakuninisshu_008.jpg	
Ultratomio	https://commons.wikimedia.org/wiki/File:Hyakuninisshu_009.jpg	
Ultratomio	https://commons.wikimedia.org/wiki/File:Hyakuninisshu_010.jpg	
Ultratomio	https://commons.wikimedia.org/wiki/File:Hyakuninisshu_011.jpg	
Ultratomio	https://commons.wikimedia.org/wiki/File:Hyakuninisshu_012.jpg	
Ultratomio	https://commons.wikimedia.org/wiki/File:Hyakuninisshu_013.jpg	
Ultratomio	https://commons.wikimedia.org/wiki/File:Hyakuninisshu_014.jpg	
Ultratomio	https://commons.wikimedia.org/wiki/File:Hyakuninisshu_015.jpg	
Ultratomio	https://commons.wikimedia.org/wiki/File:Hyakuninisshu_016.jpg	
Ultratomio	https://commons.wikimedia.org/wiki/File:Hyakuninisshu_017.jpg	
Ultratomio	https://commons.wikimedia.org/wiki/File:Hyakuninisshu_018.jpg	
Ultratomio	https://commons.wikimedia.org/wiki/File:Hyakuninisshu_019.jpg	
Ultratomio	https://commons.wikimedia.org/wiki/File:Hyakuninisshu_020.jpg	
Ultratomio	https://commons.wikimedia.org/wiki/File:Hyakuninisshu_021.jpg	
Ultratomio	https://commons.wikimedia.org/wiki/File:Hyakuninisshu_022.jpg	
Ultratomio	https://commons.wikimedia.org/wiki/File:Hyakuninisshu_023.jpg	
Ultratomio	https://commons.wikimedia.org/wiki/File:Hyakuninisshu_024.jpg	
Ultratomio	https://commons.wikimedia.org/wiki/File:Hyakuninisshu_025.jpg	
Ultratomio	https://commons.wikimedia.org/wiki/File:Hyakuninisshu_026.jpg	
Ultratomio	https://commons.wikimedia.org/wiki/File:Hyakuninisshu_027.jpg	
Ultratomio	https://commons.wikimedia.org/wiki/File:Hyakuninisshu_028.jpg	
Ultratomio	https://commons.wikimedia.org/wiki/File:Hyakuninisshu_029.jpg	
Ultratomio	https://commons.wikimedia.org/wiki/File:Hyakuninisshu_030.jpg	
Ultratomio	https://commons.wikimedia.org/wiki/File:Hyakuninisshu_031.jpg	
Ultratomio	https://commons.wikimedia.org/wiki/File:Hyakuninisshu_032.jpg	
Ultratomio	https://commons.wikimedia.org/wiki/File:Hyakuninisshu_033.jpg	
Ultratomio	https://commons.wikimedia.org/wiki/File:Hyakuninisshu_034.jpg	
Ultratomio	https://commons.wikimedia.org/wiki/File:Hyakuninisshu_035.jpg	
Ultratomio	https://commons.wikimedia.org/wiki/File:Hyakuninisshu_036.jpg	
Ultratomio	https://commons.wikimedia.org/wiki/File:Hyakuninisshu_037.jpg	
Ultratomio	https://commons.wikimedia.org/wiki/File:Hyakuninisshu_038.jpg	
Ultratomio	https://commons.wikimedia.org/wiki/File:Hyakuninisshu_039.jpg	
Ultratomio	https://commons.wikimedia.org/wiki/File:Hyakuninisshu_040.jpg	
Ultratomio	https://commons.wikimedia.org/wiki/File:Hyakuninisshu_041.jpg	
Ultratomio	https://commons.wikimedia.org/wiki/File:Hyakuninisshu_042.jpg	
Ultratomio	https://commons.wikimedia.org/wiki/File:Hyakuninisshu_043.jpg	
Ultratomio	https://commons.wikimedia.org/wiki/File:Hyakuninisshu_044.jpg	
Ultratomio	https://commons.wikimedia.org/wiki/File:Hyakuninisshu_045.jpg	
Ultratomio	https://commons.wikimedia.org/wiki/File:Hyakuninisshu_046.jpg	
Ultratomio	https://commons.wikimedia.org/wiki/File:Hyakuninisshu_047.jpg	
Ultratomio	https://commons.wikimedia.org/wiki/File:Hyakuninisshu_048.jpg	
Ultratomio	https://commons.wikimedia.org/wiki/File:Hyakuninisshu_049.jpg	
Ultratomio	https://commons.wikimedia.org/wiki/File:Hyakuninisshu_050.jpg	
Ultratomio	https://commons.wikimedia.org/wiki/File:Hyakuninisshu_051.jpg	
Ultratomio	https://commons.wikimedia.org/wiki/File:Hyakuninisshu_052.jpg	
Ultratomio	https://commons.wikimedia.org/wiki/File:Hyakuninisshu_053.jpg	
Ultratomio	https://commons.wikimedia.org/wiki/File:Hyakuninisshu_054.jpg	
Ultratomio	https://commons.wikimedia.org/wiki/File:Hyakuninisshu_055.jpg	
Ultratomio	https://commons.wikimedia.org/wiki/File:Hyakuninisshu_056.jpg	
Ultratomio	https://commons.wikimedia.org/wiki/File:Hyakuninisshu_057.jpg	
Ultratomio	https://commons.wikimedia.org/wiki/File:Hyakuninisshu_058.jpg	
Ultratomio	https://commons.wikimedia.org/wiki/File:Hyakuninisshu_059.jpg	
Ultratomio	https://commons.wikimedia.org/wiki/File:Hyakuninisshu_060.jpg	
Ultratomio	https://commons.wikimedia.org/wiki/File:Hyakuninisshu_061.jpg	
Ultratomio	https://commons.wikimedia.org/wiki/File:Hyakuninisshu_062.jpg	
Ultratomio	https://commons.wikimedia.org/wiki/File:Hyakuninisshu_063.jpg	
Ultratomio	https://commons.wikimedia.org/wiki/File:Hyakuninisshu_064.jpg	
Ultratomio	https://commons.wikimedia.org/wiki/File:Hyakuninisshu_065.jpg	
Ultratomio	https://commons.wikimedia.org/wiki/File:Hyakuninisshu_066.jpg	
Ultratomio	https://commons.wikimedia.org/wiki/File:Hyakuninisshu_067.jpg	
Ultratomio	https://commons.wikimedia.org/wiki/File:Hyakuninisshu_068.jpg	
Ultratomio	https://commons.wikimedia.org/wiki/File:Hyakuninisshu_069.jpg	
Ultratomio	https://commons.wikimedia.org/wiki/File:Hyakuninisshu_070.jpg	
Ultratomio	https://commons.wikimedia.org/wiki/File:Hyakuninisshu_071.jpg	
Ultratomio	https://commons.wikimedia.org/wiki/File:Hyakuninisshu_072.jpg	
Ultratomio	https://commons.wikimedia.org/wiki/File:Hyakuninisshu_073.jpg	
Ultratomio	https://commons.wikimedia.org/wiki/File:Hyakuninisshu_074.jpg	
Ultratomio	https://commons.wikimedia.org/wiki/File:Hyakuninisshu_075.jpg	
Ultratomio	https://commons.wikimedia.org/wiki/File:Hyakuninisshu_076.jpg	
Ultratomio	https://commons.wikimedia.org/wiki/File:Hyakuninisshu_077.jpg	
Ultratomio	https://commons.wikimedia.org/wiki/File:Hyakuninisshu_078.jpg	
Ultratomio	https://commons.wikimedia.org/wiki/File:Hyakuninisshu_079.jpg	
Ultratomio	https://commons.wikimedia.org/wiki/File:Hyakuninisshu_080.jpg	
Ultratomio	https://commons.wikimedia.org/wiki/File:Hyakuninisshu_081.jpg	
Ultratomio	https://commons.wikimedia.org/wiki/File:Hyakuninisshu_082.jpg	
Ultratomio	https://commons.wikimedia.org/wiki/File:Hyakuninisshu_083.jpg	
Ultratomio	https://commons.wikimedia.org/wiki/File:Hyakuninisshu_084.jpg	
Ultratomio	https://commons.wikimedia.org/wiki/File:Hyakuninisshu_085.jpg	
Ultratomio	https://commons.wikimedia.org/wiki/File:Hyakuninisshu_086.jpg	
Ultratomio	https://commons.wikimedia.org/wiki/File:Hyakuninisshu_087.jpg	
Ultratomio	https://commons.wikimedia.org/wiki/File:Hyakuninisshu_088.jpg	
Ultratomio	https://commons.wikimedia.org/wiki/File:Hyakuninisshu_089.jpg	
Ultratomio	https://commons.wikimedia.org/wiki/File:Hyakuninisshu_090.jpg	
Ultratomio	https://commons.wikimedia.org/wiki/File:Hyakuninisshu_091.jpg	
Ultratomio	https://commons.wikimedia.org/wiki/File:Hyakuninisshu_092.jpg	
Ultratomio	https://commons.wikimedia.org/wiki/File:Hyakuninisshu_093.jpg	
Ultratomio	https://commons.wikimedia.org/wiki/File:Hyakuninisshu_094.jpg	
Ultratomio	https://commons.wikimedia.org/wiki/File:Hyakuninisshu_095.jpg	
Ultratomio	https://commons.wikimedia.org/wiki/File:Hyakuninisshu_096.jpg	
Ultratomio	https://commons.wikimedia.org/wiki/File:Hyakuninisshu_097.jpg	
Ultratomio	https://commons.wikimedia.org/wiki/File:Hyakuninisshu_098.jpg	
Ultratomio	https://commons.wikimedia.org/wiki/File:Hyakuninisshu_099.jpg	
Ultratomio	https://commons.wikimedia.org/wiki/File:Hyakuninisshu_100.jpg	
