author	link	file path
Ebnz	https://commons.wikimedia.org/wiki/File:Tablero_de_juego_del_parchis.svg	
lunik	https://openclipart.org/detail/4477/parchis	
me_aludes	https://openclipart.org/detail/224496/6-person-parchis-board	
Víctor Manuel Campos Ramírez	https://commons.wikimedia.org/wiki/File:Parch%C3%ADs.svg	
