author	link	file path
M.casanova	https://commons.wikimedia.org/wiki/File:Gioco_reale_di_Ur_-_schema_alternativo.svg	
M.casanova	https://commons.wikimedia.org/wiki/File:Gioco_reale_di_Ur_-_schema.svg	
Moroboshi	https://commons.wikimedia.org/wiki/File:Table_royal_game_of_Ur_(I_millennium_bc).svg	
Moroboshi	https://commons.wikimedia.org/wiki/File:Table_royal_game_of_Ur_(III_millennium_bc).svg	
