author	link	file path
ImKadaga	https://github.com/ImKadaga/chess-pieces	boards/sittuyin.svg
ImKadaga	https://github.com/ImKadaga/chess-pieces	sittuyin_black_red/bR.svg
ImKadaga	https://github.com/ImKadaga/chess-pieces	sittuyin_black_red/bB.svg
ImKadaga	https://github.com/ImKadaga/chess-pieces	sittuyin_black_red/bN.svg
ImKadaga	https://github.com/ImKadaga/chess-pieces	sittuyin_black_red/bK.svg
ImKadaga	https://github.com/ImKadaga/chess-pieces	sittuyin_black_red/bP.svg
ImKadaga	https://github.com/ImKadaga/chess-pieces	sittuyin_black_red/bQ.svg
ImKadaga	https://github.com/ImKadaga/chess-pieces	sittuyin_black_red/wR.svg
ImKadaga	https://github.com/ImKadaga/chess-pieces	sittuyin_black_red/wB.svg
ImKadaga	https://github.com/ImKadaga/chess-pieces	sittuyin_black_red/wN.svg
ImKadaga	https://github.com/ImKadaga/chess-pieces	sittuyin_black_red/wK.svg
ImKadaga	https://github.com/ImKadaga/chess-pieces	sittuyin_black_red/wP.svg
ImKadaga	https://github.com/ImKadaga/chess-pieces	sittuyin_black_red/wQ.svg
ImKadaga	https://github.com/ImKadaga/chess-pieces	sittuyin_green_red/bR.svg
ImKadaga	https://github.com/ImKadaga/chess-pieces	sittuyin_green_red/bB.svg
ImKadaga	https://github.com/ImKadaga/chess-pieces	sittuyin_green_red/bN.svg
ImKadaga	https://github.com/ImKadaga/chess-pieces	sittuyin_green_red/bK.svg
ImKadaga	https://github.com/ImKadaga/chess-pieces	sittuyin_green_red/bP.svg
ImKadaga	https://github.com/ImKadaga/chess-pieces	sittuyin_green_red/bQ.svg
