author	link	file path
Mliu92	https://commons.wikimedia.org/wiki/File:Star-Star_cell_board.svg	
Mliu92	https://commons.wikimedia.org/wiki/File:Star-Star_node_board_(4).svg	
Mliu92	https://commons.wikimedia.org/wiki/File:Star-Star_node_board.svg	
