author	link	file path
Fritzlein, Mysid	https://commons.wikimedia.org/wiki/File:Chinese_checkers_start.svg	
RokerHRO	https://commons.wikimedia.org/wiki/File:Sternhalma.svg	
Wj654cj86	https://commons.wikimedia.org/wiki/File:Diamond_game_board.svg	
