author	link	file path
Outlookxp	https://commons.wikimedia.org/wiki/File:%E4%B8%89%E3%80%81%E5%85%AD%E3%80%81%E4%B9%9D.png	
Outlookxp	https://commons.wikimedia.org/wiki/File:%E4%B8%89%E5%80%8B%E5%83%A7%E4%BE%B6%E8%B5%B4%E8%97%8F.jpg	
Outlookxp	https://commons.wikimedia.org/wiki/File:%E4%B8%89%E5%AD%90%E7%88%AD%E5%85%88.jpg	
Outlookxp	https://commons.wikimedia.org/wiki/File:%E4%B8%8A%E5%88%80%E5%B1%B1.jpg	
Outlookxp	https://commons.wikimedia.org/wiki/File:%E4%B8%8A%E5%A4%A9%E6%A3%8B.png	
Outlookxp	https://commons.wikimedia.org/wiki/File:%E4%B8%8A%E5%B1%B1%E5%90%83%E6%A1%83.jpg	
Outlookxp	https://commons.wikimedia.org/wiki/File:%E4%B8%8A%E9%87%91%E9%A0%82.jpg	
Outlookxp	https://commons.wikimedia.org/wiki/File:%E4%B9%9D%E5%AE%AE%E6%A3%8B%E6%A3%8B%E7%9B%A4.jpg	
Outlookxp	https://commons.wikimedia.org/wiki/File:%E4%BE%97%E6%97%8F%E7%9A%84%E5%A4%A9%E6%A3%8B.jpg	
Outlookxp	https://commons.wikimedia.org/wiki/File:%E4%BE%97%E6%97%8F%E9%9B%9E%E5%A9%86%E6%A3%8B.png	
Outlookxp	https://commons.wikimedia.org/wiki/File:%E5%85%A7%E9%84%89%E7%9A%84%E4%B8%89%E5%85%AD%E4%B9%9D%E6%A3%8B.png	
Outlookxp	https://commons.wikimedia.org/wiki/File:%E5%87%BA%E5%87%BA%E5%B1%95.jpg	
Outlookxp	https://commons.wikimedia.org/wiki/File:%E5%9B%9E%E7%B4%8B%E6%A3%8B.png	
Outlookxp	https://commons.wikimedia.org/wiki/File:%E5%A4%A7%E6%BA%9D%E5%BA%84%E7%9A%84%E4%B8%89%E5%85%AD%E4%B9%9D.png	
Outlookxp	https://commons.wikimedia.org/wiki/File:%E5%A4%A9%E7%8E%8B%E6%A3%8B.jpg	
Outlookxp	https://commons.wikimedia.org/wiki/File:%E5%B0%81%E5%AE%98%E6%A3%8B.jpg	
Outlookxp	https://commons.wikimedia.org/wiki/File:%E5%B1%B1%E6%9D%B1%E7%9A%84%E9%B1%89%E6%A3%8B.jpg	
Outlookxp	https://commons.wikimedia.org/wiki/File:%E5%B1%B1%E8%A5%BF%E5%A4%A7%E5%90%8C%E7%9A%84%E5%9D%90%E6%9C%9D%E5%BB%B7.jpg	
Outlookxp	https://commons.wikimedia.org/wiki/File:%E6%A0%BD%E7%A7%A7%E6%A3%8B.png	
Outlookxp	https://commons.wikimedia.org/wiki/File:%E6%B0%B8%E6%B3%B0%E7%9A%84%E5%A4%A9%E6%A3%8B.jpg	
Outlookxp	https://commons.wikimedia.org/wiki/File:%E6%B2%85%E9%99%B5%E7%9A%84%E7%9A%87%E5%B8%9D%E6%A3%8B.jpg	
Outlookxp	https://commons.wikimedia.org/wiki/File:%E6%B2%85%E9%99%B5%E7%9A%84%E7%9A%87%E5%B8%9D%E6%A3%8B2.jpg	
Outlookxp	https://commons.wikimedia.org/wiki/File:%E6%BF%9F%E5%AF%A7%E7%9A%84%E8%B5%B0%E5%8C%97%E4%BA%AC.jpg	
Outlookxp	https://commons.wikimedia.org/wiki/File:%E7%88%AD%E4%B8%89%E5%9C%8B.jpg	
Outlookxp	https://commons.wikimedia.org/wiki/File:%E7%88%AD%E7%8E%8B%E6%A3%8B.jpg	
Outlookxp	https://commons.wikimedia.org/wiki/File:%E7%88%AD%E9%AB%98%E6%A3%8B.JPG	
Outlookxp	https://commons.wikimedia.org/wiki/File:%E7%8B%80%E5%85%83%E6%A3%8B.jpg	
Outlookxp	https://commons.wikimedia.org/wiki/File:%E7%8E%8B%E6%A3%8B.png	
Outlookxp	https://commons.wikimedia.org/wiki/File:%E7%99%BB%E5%96%9C%E9%B5%B2%E7%AA%A9.jpg	
Outlookxp	https://commons.wikimedia.org/wiki/File:%E7%99%BB%E5%B1%B1%E6%A3%8B.png	
Outlookxp	https://commons.wikimedia.org/wiki/File:%E7%99%BB%E9%AB%98%E6%9C%9D%E8%81%96.jpg	
Outlookxp	https://commons.wikimedia.org/wiki/File:%E7%B3%9E%E7%BC%B8%E6%A3%8B.jpg	
Outlookxp	https://commons.wikimedia.org/wiki/File:%E8%80%81%E5%A9%86%E5%AD%90%E8%B6%95%E5%8D%97%E5%B1%B1.jpg	
Outlookxp	https://commons.wikimedia.org/wiki/File:%E8%80%81%E7%89%9B%E8%B6%95%E5%B1%B1.png	
Outlookxp	https://commons.wikimedia.org/wiki/File:%E8%81%8A%E5%9F%8E%E7%9A%84%E5%8D%81%E5%9F%8E.jpg	
Outlookxp	https://commons.wikimedia.org/wiki/File:%E8%8D%B7%E6%BE%A4%E7%9A%84%E8%B5%B0%E5%8C%97%E4%BA%AC.jpg	
Outlookxp	https://commons.wikimedia.org/wiki/File:%E8%9C%88%E8%9A%A3%E6%A3%8B.png	
Outlookxp	https://commons.wikimedia.org/wiki/File:%E8%B4%9B%E5%8D%97%E9%9B%9E%E5%A9%86%E6%A3%8B.jpg	
Outlookxp	https://commons.wikimedia.org/wiki/File:%E8%B5%B0%E5%A4%A9%E6%A2%AF.jpg	
Outlookxp	https://commons.wikimedia.org/wiki/File:%E8%B6%95%E9%9B%86%E6%A3%8B.png	
Outlookxp	https://commons.wikimedia.org/wiki/File:%E8%B7%9F%E9%9B%86.PNG	
Outlookxp	https://commons.wikimedia.org/wiki/File:%E9%80%B2%E7%9A%87%E5%9F%8E.jpg	
Outlookxp	https://commons.wikimedia.org/wiki/File:%E9%99%9D%E5%8C%97%E7%B1%B3%E8%84%82%E7%9A%84%E5%9D%90%E6%9C%9D.jpg	
Outlookxp	https://commons.wikimedia.org/wiki/File:%E9%9B%9E%E5%AB%B2%E6%A3%8B.png	
Outlookxp	https://commons.wikimedia.org/wiki/File:%E9%9D%88%E4%B8%98%E7%9A%84%E4%B8%8B%E9%9B%9E%E8%9B%8B.jpg	
Outlookxp	https://commons.wikimedia.org/wiki/File:%E9%AD%AF%E8%A5%BF%E7%9A%84%E8%B5%B0%E5%8C%97%E4%BA%AC.jpg	
Outlookxp	https://commons.wikimedia.org/wiki/File:%E9%AD%AF%E8%A5%BF%E7%9A%84%E8%B5%B0%E5%8C%97%E4%BA%AC2.jpg	
Outlookxp	https://commons.wikimedia.org/wiki/File:%E9%B9%BF%E9%82%91%E7%9A%84%E4%B8%89%E5%85%AD%E4%B9%9D%E6%A3%8B.jpg	
Outlookxp	https://commons.wikimedia.org/wiki/File:%E9%BB%83%E5%B8%9D%E6%A3%8B.jpg	
