author	link	file path
DarkEvil	https://commons.wikimedia.org/wiki/File:Alquerque_board_at_starting_position_2.svg	
Life of Riley	https://commons.wikimedia.org/wiki/File:Adugo.svg	
Mliu92	https://commons.wikimedia.org/wiki/File:Alquerque_board_at_starting_position_2.svg	
Mliu92	https://commons.wikimedia.org/wiki/File:Leopard_Game_board-00.svg	
Mliu92	https://commons.wikimedia.org/wiki/File:Leopard_Game_board-01.svg	
Mliu92	https://commons.wikimedia.org/wiki/File:Leopard_Game_board-02.svg	
Mliu92	https://commons.wikimedia.org/wiki/File:Permainan-Tabal.svg	
Mliu92	https://commons.wikimedia.org/wiki/File:Rimau_(board).svg	
Mliu92	https://commons.wikimedia.org/wiki/File:Tiger_Game_board-00.svg	
Mliu92	https://commons.wikimedia.org/wiki/File:Tiger_Game_board-01.svg	
Mliu92	https://commons.wikimedia.org/wiki/File:Tiger_Game_board-02.svg	
Mliu92	https://commons.wikimedia.org/wiki/File:Tiger_Game_board-03.svg	
Mliu92	https://commons.wikimedia.org/wiki/File:Tiger_Game_board-04.svg	
Mliu92	https://commons.wikimedia.org/wiki/File:Tiger_Game_board-05.svg	
Mliu92	https://commons.wikimedia.org/wiki/File:Tiger_Game_board-06.svg	
Mliu92	https://commons.wikimedia.org/wiki/File:Tiger_Game_board-07.svg	
Mliu92	https://commons.wikimedia.org/wiki/File:Tiger_Game_board-08.svg	
Mliu92	https://commons.wikimedia.org/wiki/File:Tiger_Game_board-09.svg	
Mliu92	https://commons.wikimedia.org/wiki/File:Tiger_Game_board-10.svg	
Mliu92	https://commons.wikimedia.org/wiki/File:Tiger_Game_board-11.svg	
Mliu92	https://commons.wikimedia.org/wiki/File:Tiger_Game_board-12.svg	
Mliu92	https://commons.wikimedia.org/wiki/File:Tiger_Game_board-13.svg	
Mliu92	https://commons.wikimedia.org/wiki/File:Tiger_Game_board-15.svg	
Outlookxp	https://commons.wikimedia.org/wiki/File:%E4%B8%83%E9%B9%BF%E6%A3%8B.jpg	
Outlookxp	https://commons.wikimedia.org/wiki/File:%E4%B9%9D%E5%8D%81%E5%85%AD%E9%B9%BF%E6%A3%8B.jpg	
Outlookxp	https://commons.wikimedia.org/wiki/File:%E4%B9%9D%E9%81%93%E5%8D%81%E5%9B%9B%E6%96%9C%E7%B7%9A%E7%9A%84%E8%A5%BF%E8%97%8F%E8%99%8E%E6%A3%8B.jpg	
Outlookxp	https://commons.wikimedia.org/wiki/File:%E4%BA%8C%E5%8D%81%E9%B9%BF%E6%A3%8B.jpg	
Outlookxp	https://commons.wikimedia.org/wiki/File:%E5%85%AD%E5%8D%81%E9%B9%BF%E6%A3%8B.jpg	
Outlookxp	https://commons.wikimedia.org/wiki/File:%E5%9B%9B%E5%8D%81%E5%85%AB%E9%B9%BF%E6%A3%8B.jpg	
Outlookxp	https://commons.wikimedia.org/wiki/File:%E7%AC%AC%E4%B8%80%E7%A8%AE%E5%85%AD%E5%8D%81%E5%9B%9B%E9%B9%BF%E6%A3%8B.jpg	
Outlookxp	https://commons.wikimedia.org/wiki/File:%E7%AC%AC%E4%B8%89%E7%A8%AE%E5%85%AD%E5%8D%81%E5%9B%9B%E9%B9%BF%E6%A3%8B.jpg	
Outlookxp	https://commons.wikimedia.org/wiki/File:%E7%AC%AC%E4%B8%89%E7%A8%AE%E5%9B%9B%E5%8D%81%E5%85%AB%E9%B9%BF%E6%A3%8B.jpg	
Outlookxp	https://commons.wikimedia.org/wiki/File:%E7%AC%AC%E4%BA%8C%E7%A8%AE%E5%85%AD%E5%8D%81%E5%9B%9B%E9%B9%BF%E6%A3%8B.jpg	
Outlookxp	https://commons.wikimedia.org/wiki/File:%E7%AC%AC%E4%BA%8C%E7%A8%AE%E5%9B%9B%E5%8D%81%E5%85%AB%E9%B9%BF%E6%A3%8B.jpg	
Outlookxp	https://commons.wikimedia.org/wiki/File:%E7%AC%AC%E5%9B%9B%E7%A8%AE%E5%85%AD%E5%8D%81%E5%9B%9B%E9%B9%BF%E6%A3%8B.jpg	
QuasarFr	https://commons.wikimedia.org/wiki/File:AlquerqueT.svg	
