author	link	file path
Mliu92	https://commons.wikimedia.org/wiki/File:Trax_tile_(R)_%2BB.svg	
Mliu92	https://commons.wikimedia.org/wiki/File:Trax_tile_(R)_BB.svg	
Mliu92	https://commons.wikimedia.org/wiki/File:Trax_tile_%2BR.svg	
Mliu92	https://commons.wikimedia.org/wiki/File:Trax_tile_BR.svg	
Yekrats	https://commons.wikimedia.org/wiki/File:Trax-rbrb.svg	
Yekrats	https://commons.wikimedia.org/wiki/File:Trax-rrbb.svg	
