author	link	file path
Life of Riley	https://commons.wikimedia.org/wiki/File:Chang_San.svg	
Life of Riley	https://commons.wikimedia.org/wiki/File:Da_tou_liu.svg	
Life of Riley	https://commons.wikimedia.org/wiki/File:Di_Pai2.svg	
Life of Riley	https://commons.wikimedia.org/wiki/File:Er_Pai.svg	
Life of Riley	https://commons.wikimedia.org/wiki/File:Fu_tou.svg	
Life of Riley	https://commons.wikimedia.org/wiki/File:Gao_jiao_qi.svg	
Life of Riley	https://commons.wikimedia.org/wiki/File:Hong_tou.svg	
Life of Riley	https://commons.wikimedia.org/wiki/File:Lin_lin_liu.svg	
Life of Riley	https://commons.wikimedia.org/wiki/File:Mei_hua.svg	
Life of Riley	https://commons.wikimedia.org/wiki/File:Pai_Gow_Example_A.svg	
Life of Riley	https://commons.wikimedia.org/wiki/File:Pai_Gow_Example_B.svg	
Life of Riley	https://commons.wikimedia.org/wiki/File:Tian.svg	
Life of Riley	https://commons.wikimedia.org/wiki/File:Xiao_ji.svg	
Life of Riley	https://commons.wikimedia.org/wiki/File:Zha_ba1.svg	
Life of Riley	https://commons.wikimedia.org/wiki/File:Zha_ba2.svg	
Life of Riley	https://commons.wikimedia.org/wiki/File:Zha_jiu1.svg	
Life of Riley	https://commons.wikimedia.org/wiki/File:Zha_jiu2.svg	
Life of Riley	https://commons.wikimedia.org/wiki/File:Zha_qi1.svg	
Life of Riley	https://commons.wikimedia.org/wiki/File:Zha_qi2.svg	
Life of Riley	https://commons.wikimedia.org/wiki/File:Zha_wu1.svg	
Life of Riley	https://commons.wikimedia.org/wiki/File:Zha_wu2.svg	
Mliu92	https://commons.wikimedia.org/wiki/File:Domino-1%2B1.svg	
Mliu92	https://commons.wikimedia.org/wiki/File:Domino-1%2B2.svg	
Mliu92	https://commons.wikimedia.org/wiki/File:Domino-1%2B3.svg	
Mliu92	https://commons.wikimedia.org/wiki/File:Domino-1%2B4.svg	
Mliu92	https://commons.wikimedia.org/wiki/File:Domino-1%2B5.svg	
Mliu92	https://commons.wikimedia.org/wiki/File:Domino-1%2B6.svg	
Mliu92	https://commons.wikimedia.org/wiki/File:Domino-2%2B2.svg	
Mliu92	https://commons.wikimedia.org/wiki/File:Domino-2%2B3.svg	
Mliu92	https://commons.wikimedia.org/wiki/File:Domino-2%2B4.svg	
Mliu92	https://commons.wikimedia.org/wiki/File:Domino-2%2B5.svg	
Mliu92	https://commons.wikimedia.org/wiki/File:Domino-2%2B6.svg	
Mliu92	https://commons.wikimedia.org/wiki/File:Domino-3%2B3.svg	
Mliu92	https://commons.wikimedia.org/wiki/File:Domino-3%2B3a.svg	
Mliu92	https://commons.wikimedia.org/wiki/File:Domino-3%2B4.svg	
Mliu92	https://commons.wikimedia.org/wiki/File:Domino-3%2B5.svg	
Mliu92	https://commons.wikimedia.org/wiki/File:Domino-3%2B6.svg	
Mliu92	https://commons.wikimedia.org/wiki/File:Domino-4%2B4.svg	
Mliu92	https://commons.wikimedia.org/wiki/File:Domino-4%2B5.svg	
Mliu92	https://commons.wikimedia.org/wiki/File:Domino-4%2B6.svg	
Mliu92	https://commons.wikimedia.org/wiki/File:Domino-5%2B5.svg	
Mliu92	https://commons.wikimedia.org/wiki/File:Domino-5%2B6.svg	
Mliu92	https://commons.wikimedia.org/wiki/File:Domino-6%2B6.svg	
Mliu92	https://commons.wikimedia.org/wiki/File:CDomino_1-1.svg	
Mliu92	https://commons.wikimedia.org/wiki/File:CDomino_1-2.svg	
Mliu92	https://commons.wikimedia.org/wiki/File:CDomino_1-3.svg	
Mliu92	https://commons.wikimedia.org/wiki/File:CDomino_1-4.svg	
Mliu92	https://commons.wikimedia.org/wiki/File:CDomino_1-5.svg	
Mliu92	https://commons.wikimedia.org/wiki/File:CDomino_1-6.svg	
Mliu92	https://commons.wikimedia.org/wiki/File:CDomino_2-2.svg	
Mliu92	https://commons.wikimedia.org/wiki/File:CDomino_2-3.svg	
Mliu92	https://commons.wikimedia.org/wiki/File:CDomino_2-4.svg	
Mliu92	https://commons.wikimedia.org/wiki/File:CDomino_2-5.svg	
Mliu92	https://commons.wikimedia.org/wiki/File:CDomino_2-6.svg	
Mliu92	https://commons.wikimedia.org/wiki/File:CDomino_3-3.svg	
Mliu92	https://commons.wikimedia.org/wiki/File:CDomino_3-3a.svg	
Mliu92	https://commons.wikimedia.org/wiki/File:CDomino_3-4.svg	
Mliu92	https://commons.wikimedia.org/wiki/File:CDomino_3-5.svg	
Mliu92	https://commons.wikimedia.org/wiki/File:CDomino_3-6.svg	
Mliu92	https://commons.wikimedia.org/wiki/File:CDomino_4-4.svg	
Mliu92	https://commons.wikimedia.org/wiki/File:CDomino_4-5.svg	
Mliu92	https://commons.wikimedia.org/wiki/File:CDomino_4-6.svg	
Mliu92	https://commons.wikimedia.org/wiki/File:CDomino_5-5.svg	
Mliu92	https://commons.wikimedia.org/wiki/File:CDomino_5-6.svg	
Mliu92	https://commons.wikimedia.org/wiki/File:CDomino_6-6.svg	
Mliu92	https://commons.wikimedia.org/wiki/File:KDomino_1-1.svg	
Mliu92	https://commons.wikimedia.org/wiki/File:KDomino_1-2.svg	
Mliu92	https://commons.wikimedia.org/wiki/File:KDomino_1-3.svg	
Mliu92	https://commons.wikimedia.org/wiki/File:KDomino_1-4.svg	
Mliu92	https://commons.wikimedia.org/wiki/File:KDomino_1-5.svg	
Mliu92	https://commons.wikimedia.org/wiki/File:KDomino_1-6.svg	
Mliu92	https://commons.wikimedia.org/wiki/File:KDomino_2-2.svg	
Mliu92	https://commons.wikimedia.org/wiki/File:KDomino_2-3.svg	
Mliu92	https://commons.wikimedia.org/wiki/File:KDomino_2-4.svg	
Mliu92	https://commons.wikimedia.org/wiki/File:KDomino_2-5.svg	
Mliu92	https://commons.wikimedia.org/wiki/File:KDomino_2-6.svg	
Mliu92	https://commons.wikimedia.org/wiki/File:KDomino_3-3.svg	
Mliu92	https://commons.wikimedia.org/wiki/File:KDomino_3-4.svg	
Mliu92	https://commons.wikimedia.org/wiki/File:KDomino_3-5.svg	
Mliu92	https://commons.wikimedia.org/wiki/File:KDomino_3-6.svg	
Mliu92	https://commons.wikimedia.org/wiki/File:KDomino_4-4.svg	
Mliu92	https://commons.wikimedia.org/wiki/File:KDomino_4-5.svg	
Mliu92	https://commons.wikimedia.org/wiki/File:KDomino_4-6.svg	
Mliu92	https://commons.wikimedia.org/wiki/File:KDomino_5-5.svg	
Mliu92	https://commons.wikimedia.org/wiki/File:KDomino_5-6.svg	
Mliu92	https://commons.wikimedia.org/wiki/File:KDomino_6-6.svg	
